S841E2000M2,2TB
S842E200M2,200GB
S841E400M2,400GB
S842E400M2,400GB
S842E800M2,800GB
S841E800M2,800GB
CT1024M550SSD1,1TB
CT240M500SSD1,240GB
CT480M500SSD1,480GB
D2RSTK251S14-0050,50GB
D2RSTK251S14-0100,100GB
D2RSTK251S14-0200,200GB
MZ-75E1T0B,1TB
MZ-7GE960EW,960GB
MZ-7KM960E,960GB
MZ-7K256BW,256GB
MZ-7KE128BW,128GB
MZ-7KE1T0BW,1TB
MZ-7KE1T0B,1TB
MZ-7KE256,256GB
MZ-7KE256BW,256GB
MZ-7KE512B,512GB
MZ-7KE512BW,512GB
MZ-7PD128,128GB
MZ-7PD128BW,128GB
MZ-7PD256,256GB
MZ-7PD256BW,256GB
MZ-7PD256Z,256GB
MZ-7PD512,512GB
MZ-7KE512,512GB
MZ-7PD512BW,512GB
MZ-7TE120,120GB
MZ-7TE120K,120GB
MZ-7TE120KW,120GB
MZ-7TE1T0,1TB
MZ-7TE1T0BW,1TB
MZ-7LM960HCHP,960GB
MZ-7TE250,250GB
MZ-7TE250K,250GB
MZ-7TE500,500GB
MZ-7TE500LW,500GB
MZ-7WD800EW,800GB
MZ7LM960HCHP-0E003,960GB
MZ7PD128BW,128GB
MZ7PD128HCFV-1BW00,128GB
MZ7PD128HCFV,128GB
MZ7PD256Z,256GB
MZ7TE120HMGR,120GB
PX03SNF080,800GB
SD6SB1M-064G-1022I,64GB
SD6SB1M-064G1022I,64GB
SD7UB3Q-128G,128GB
SD7UB3Q-128G-1122,128GB
SD7SB7S-512G-1122,512GB
SDFCQ01GEA01,800GB
SDSSDHII-120GB,120GB
SDSSDHII-120G,120GB
SDSSDHII-120G-G25,120GB
SDSSDXP-120G,120GB
SDSSDXP-240G,240GB
SDSSDXP-480G,480GB
SDSSDXP-960G,960GB
SSDSA2CT040G310,40GB
SSDSA2CT040G3K5,40GB
SSDSA2CW120G3,120GB
SSDSC2BW120A401,120GB
SSDSC2BW120H601,120GB
SDSSDA120G,120GB
SDSSDHII120G,120GB
SD6SB1M064G1022I,256GB
SSDSC2BA100G3,100GB
SSDSC2BA100G301,100GB
SSDSC2BA200G3,200GB
SSDSC2BA200G4,200GB
SSDSC2BA200G401,200GB
SSDSC2BA200G301,200GB
SSDSC2BA400G301,400GB
SSDSC2BA800G301,800GB
SSDSC2BB080G401,80GB
SSDSC2BB080G6,80GB
SSDSC2BB480G6,480GB
SSDSC2BB120G4,120GB
SSDSC2BB120G401,120GB
SSDSC2BB120G601,120GB
SSDSC2BB160G401,160GB
SSDSC2BB240G4,240GB
SSDSC2BB240G6,240GB
SSDSC2BB240G401,240GB
SSDSC2BB300G,300GB
SSDSC2BB300G401,300GB
SSDSC2BB480G4,480GB
SSDSC2BB480G601,480GB
SSDSC2BB480G401,480GB
SSDSC2BX480G401,480GB
SSDSC2BX400G4,400GB
SSDSC2BB600G401,600GB
SSDSC2BB800G4,800GB
SSDSC2BB800G6,800GB
SSDSC2BB800G401,800GB
SSDSC2BB800G601,800GB
SSDSC2BA400G401,400GB
SSDPEDME012T401,1.2TB
Z4RZF3D-8UC,8GB
Z4RZF3D-BUC,8GB
0T00169,200GB
0T00191,800GB
0T00291,8GB
0T00291-Z4RZF3D-8UC,8GB
0T00197,800GB
0B32234,800GB
HUSMM1640ASS204,400GB
HUSMH8010BSS200,100GB
0B31069,100GB
0B31065,200GB
0B31074,250GB
0B31075,400GB
0B31068,1.6TB
0B31067,800GB
0B31078,1TB
D2RSTK251S14-0050,50GB
ZeusRAM,8GB
SSDSC2BB240G6,240GB
SSDSC2BB240G601,240GB
SSDSC2BA400G4,400GB
SSDSC2MH120A2,120GB
HUSMM1616ASS200,1.6TB
HUSMR1640ASS200,400GB
SSDSC2BB012T6,1.2TB
HUSMR1625ASS200,250GB
MZ7LM1T9HCJM-00005,1.9TB
MZ7KM1T9HAJM-0E005,1.92TB
MZ7KM1T9HAJM-00005,1.92TB
MZ7LM3T8HCJM-00005,3.84TB
MZ7LM3T8HMLP-00005,3.8TB
MZ7LM960HCHP-00005,960GB
MZ7KM480HAHP-00005,480GB
MZ7KM480HAHP-0E005,480GB
MZ7KM960HAHP-0E005,960GB
MZ7KM960HAHP-0Z005,960GB
MZ7KM960HAHP-00005,960GB
MZ7KM240HAGR-0E005,240GB
MZ7KM240HAGR-00005,240GB
MZ7KM120HAFD-0E005,120GB
MZ7KM120HAFD-00005,120GB
MZ7LM120HCFD-0E005,120GB
MZ7LM120HCFD-00005,120GB
MZ7LM120HCFD-0E003,120GB
MZ7LM120HCFD-00003,120GB
MZ7LM480HCHP-0E003,480GB
MZ7LM480HCHP-00003,480GB
MZ7LM960HCHP-00003,960GB
SSD-960GB-MZ7LM960HCHP-00005,960GB
MZ7LM1T9HCJM-0E003,1.92TB
MZ7LM1T9HCJM-00003,1.92TB
HUSMR1680ASS201,800GB
SSDSA2M040G2GC,40GB
SD6SB1M064G1022,64GB
HUSMR1610ASS200,1TB
Micron_M600_MTFDDAK128MBF,128GB
APSDM016GA3AN-ATM,16GB
MICRON_M510DC_MTFDDAK480MBP,480GB
SSDSC2BX200G4,200GB
MTFDJAL1T9MBU,1920GB
MTFDDAK128MBF-1AN1ZABYY,128GB
CT500MX200SSD1,500GB
CT100MX200SSD1,1TB
CT1000MX200SSD1,1TB
Micron_1100_MTFDDAK256TBN,256GB
MTFDJAL3T8MBU,3.84TB
MTFDJAL3T8MBU-2AN1ZABYY,3.84TB
SSDSC2BX100G4,100GB
SSDSC2BX480G4,480GB
SSDSC2BA800G4,800GB
SSDSC2BB120G6,120GB
SSDSC2BA480G401,480GB
SSDSC2BX800G4,800GB
SSDSC2BB800G7,800GB
SSDSC2BB150G7,150GB
SSDSC2BB480G7,480GB
SSDSA2CW160G3,160GB
SSDSC2BA200G4,200GB
SSDSC2BB240G7,240GB
SV300S37A60G,60GB
SSDSC2BB160G4,160GB
MZ7LM960HMJP-00005,960GB
MZ7KM960HMJP-00005,960GB
SSDSC2BB012T7,1.20TB
SSDSC2BB960G7,960GB
3MG2-P,124GB
SSDSC2BB016T7,1.60TB
